{
    "git": {
        "git_revision": "dc6c18c0dea7af3c40bfff86c530fd877d899dc4", 
        "remote": "https://git.mozilla.org/releases/gaia.git", 
        "branch": ""
    }, 
    "revision": "eed37c94d1a7e2581513af12d3bedaa9342dee43", 
    "repo_path": "integration/gaia-central"
}
